timestamp: 2016-06-05T15:45:32.276724
CREATE TABLE auth_user(
    id INTEGER PRIMARY KEY AUTOINCREMENT,
    first_name CHAR(128),
    last_name CHAR(128),
    email CHAR(512),
    password CHAR(512),
    registration_key CHAR(512),
    reset_password_key CHAR(512),
    registration_id CHAR(512)
);
success!
timestamp: 2016-06-05T15:45:32.285071
CREATE TABLE auth_group(
    id INTEGER PRIMARY KEY AUTOINCREMENT,
    role CHAR(512),
    description TEXT
);
success!
timestamp: 2016-06-05T15:45:32.296954
CREATE TABLE auth_membership(
    id INTEGER PRIMARY KEY AUTOINCREMENT,
    user_id INTEGER REFERENCES auth_user (id) ON DELETE CASCADE  ,
    group_id INTEGER REFERENCES auth_group (id) ON DELETE CASCADE  
);
success!
timestamp: 2016-06-05T15:45:32.329094
CREATE TABLE auth_permission(
    id INTEGER PRIMARY KEY AUTOINCREMENT,
    group_id INTEGER REFERENCES auth_group (id) ON DELETE CASCADE  ,
    name CHAR(512),
    table_name CHAR(512),
    record_id INTEGER
);
success!
timestamp: 2016-06-05T15:45:32.332600
CREATE TABLE auth_event(
    id INTEGER PRIMARY KEY AUTOINCREMENT,
    time_stamp TIMESTAMP,
    client_ip CHAR(512),
    user_id INTEGER REFERENCES auth_user (id) ON DELETE CASCADE  ,
    origin CHAR(512),
    description TEXT
);
success!
timestamp: 2016-06-05T15:45:32.334918
CREATE TABLE auth_cas(
    id INTEGER PRIMARY KEY AUTOINCREMENT,
    user_id INTEGER REFERENCES auth_user (id) ON DELETE CASCADE  ,
    created_on TIMESTAMP,
    service CHAR(512),
    ticket CHAR(512),
    renew CHAR(1)
);
success!
timestamp: 2016-06-05T15:57:00.867270
CREATE TABLE customer(
    id INTEGER PRIMARY KEY AUTOINCREMENT,
    first_name CHAR(512),
    last_name CHAR(512)
);
success!
timestamp: 2016-06-05T15:57:00.892097
CREATE TABLE training(
    id INTEGER PRIMARY KEY AUTOINCREMENT,
    status CHAR(512),
    title CHAR(512),
    trainer INTEGER REFERENCES auth_user (id) ON DELETE CASCADE  ,
    service CHAR(512),
    start_date DATE,
    end_date DATE,
    created_on DATE,
    created_by INTEGER REFERENCES auth_user (id) ON DELETE CASCADE  ,
    note TEXT,
    customer_id INTEGER REFERENCES customer (id) ON DELETE CASCADE  
);
success!
timestamp: 2016-06-05T16:04:01.196100
ALTER TABLE customer ADD phone CHAR(512);
timestamp: 2016-06-05T16:04:01.207495
ALTER TABLE customer ADD email CHAR(512);
success!
